…
Kootenay Lake (KOTL) watershed group in southeastern British Columbia.

## Connect to the Data Catalog

The cd package serves ERA5-Land climate data as Cloud-Optimized GeoTIFFs
on S3, indexed by a STAC catalog.
[`cd_catalog()`](https://newgraphenvironment.github.io/cd/reference/cd_catalog.md)
reads the catalog and returns a tidy tibble of available variables and
periods.

``` r
catalog <- cd_catalog()
catalog
#> # A tibble: 25 × 3
#>    variable period href                                                         
#>    <chr>    <chr>  <chr>                                                        
#>  1 prcp     annual https://stac-era5-land.s3.us-west-2.amazonaws.com/prcp_annua…
#>  2 prcp     fall   https://stac-era5-land.s3.us-west-2.amazonaws.com/prcp_fall.…
#>  3 prcp     spring https://stac-era5-land.s3.us-west-2.amazonaws.com/prcp_sprin…
#>  4 prcp     summer https://stac-era5-land.s3.us-west-2.amazonaws.com/prcp_summe…
#>  5 prcp     winter https://stac-era5-land.s3.us-west-2.amazonaws.com/prcp_winte…
#>  6 rh       annual https://stac-era5-land.s3.us-west-2.amazonaws.com/rh_annual.…
#>  7 rh       fall   https://stac-era5-land.s3.us-west-2.amazonaws.com/rh_fall.tif
#>  8 rh       spring https://stac-era5-land.s3.us-west-2.amazonaws.com/rh_spring.…
#>  9 rh       summer https://stac-era5-land.s3.us-west-2.amazonaws.com/rh_summer.…
#> 10 rh       winter https://stac-era5-land.s3.us-west-2.amazonaws.com/rh_winter.…
#> # ℹ 15 more rows
```
…
The choice of reference period shapes the story. The WMO standard
1981–2010 baseline is widely used for comparability, but it includes
decades of warming. A pre-warming baseline (1951–1980) reveals the full
magnitude of departure — what Pauly (1995) called avoiding the “shifting
baseline syndrome.”

``` r
# Pre-warming baseline
bl_early <- cd_baseline(ts, baseline_years = 1951:1980)

# WMO standard
bl_wmo <- cd_baseline(ts, baseline_years = 1981:2010)

bl_early
#> # A tibble: 25 × 3
#>    variable period baseline_mean
#>    <chr>    <chr>          <dbl>
#>  1 prcp     annual        1061. 
#>  2 prcp     fall           261. 
#>  3 prcp     spring         251. 
#>  4 prcp     summer         208. 
#>  5 prcp     winter         340. 
#>  6 rh       annual          71.3
#>  7 rh       fall            74.9
#>  8 rh       spring          70.8
#>  9 rh       summer          57.7
#> 10 rh       winter          81.8
#> # ℹ 15 more rows
```
…
## Comparing Time Windows

[`cd_compare()`](https://newgraphenvironment.github.io/cd/reference/cd_compare.md)
directly answers: “How different is the recent climate from the
historical climate?”

``` r
cmp <- cd_compare(ts,
  window_a = 2015:2025,
  window_b = 1951:1980,
  method = "mean_diff"
)
cmp
#> # A tibble: 25 × 6
#>    variable period mean_a mean_b difference method   
#>    <chr>    <chr>   <dbl>  <dbl>      <dbl> <chr>    
#>  1 prcp     annual  914.  1061.   -147.     mean_diff
#>  2 prcp     fall    250.   261.    -11.3    mean_diff
#>  3 prcp     spring  238.   251.    -13.7    mean_diff
#>  4 prcp     summer  163.   208.    -45.1    mean_diff
#>  5 prcp     winter  263.   340.    -77.0    mean_diff
#>  6 rh       annual   68.7   71.3    -2.57   mean_diff
#>  7 rh       fall     72.9   74.9    -2.00   mean_diff
#>  8 rh       spring   68.3   70.8    -2.46   mean_diff
#>  9 rh       summer   51.9   57.7    -5.85   mean_diff
#> 10 rh       winter   81.9   81.8     0.0333 mean_diff
#> # ℹ 15 more rows
```
…
